# Blender MTL File: 'flash drive 257b 004.blend'
# Material Count: 4
newmtl Silver
Ns 546.797238
Ka 0.000000 0.000000 0.000000
Kd 0.667136 0.667136 0.667136
Ks 1.000000 1.000000 1.000000
Ni 1.000000
d 1.000000
illum 2


newmtl black
Ns 45.098039
Ka 0.000000 0.000000 0.000000
Kd 0.010727 0.010727 0.010727
Ks 0.190476 0.190476 0.190476
Ni 1.000000
d 1.000000
illum 2


newmtl chrome
Ns 570.588235
Ka 0.000000 0.000000 0.000000
Kd 0.800000 0.800000 0.824313
Ks 0.939217 0.939217 1.000000
Ni 1.000000
d 1.000000
illum 2


newmtl white
Ns 96.078431
Ka 0.000000 0.000000 0.000000
Kd 0.852223 0.852223 0.852223
Ks 0.500000 0.500000 0.500000
Ni 1.000000
d 1.000000
illum 2


